{
"enable": {
  "xforward": true
},
"hostnameOnly": true,
"https": {
  "sni-certificates": {
    "www.ycsoft.org": {
    	"cert": "server.crt",
    	"key": "server.key"
    }
  },
  "cert": "server.crt",
  "key": "server.key"
},
"router" : {
  "droplet.ycsoft.org" : "localhost:3000",
  "www.ycsoft.org" : "localhost:3000",
  "ycsoft.org" : "localhost:443",
  "cherif.ycsoft.org" : "localhost:3008"
}
}
